…
*By observation, it seems like the 1st method overlapped some data since the 2 countries appeared in the same year. To solve the problem, by introducing `%in%`, it is value matching and  "returns a vector of the positions of (first) matches of its first argument in its second", while `==` is logical operator, in this case, which means some variables are overlapped since one of its attribute(eg. year) happened to be the same. Fixed version:*

```r
filter(gapminder, country %in% c("Rwanda", "Afghanistan"))
```

```
## # A tibble: 24 x 6
##    country     continent  year lifeExp      pop gdpPercap
##    <fct>       <fct>     <int>   <dbl>    <int>     <dbl>
##  1 Afghanistan Asia       1952    28.8  8425333      779.
##  2 Afghanistan Asia       1957    30.3  9240934      821.
##  3 Afghanistan Asia       1962    32.0 10267083      853.
##  4 Afghanistan Asia       1967    34.0 11537966      836.
##  5 Afghanistan Asia       1972    36.1 13079460      740.
##  6 Afghanistan Asia       1977    38.4 14880372      786.
##  7 Afghanistan Asia       1982    39.9 12881816      978.
##  8 Afghanistan Asia       1987    40.8 13867957      852.
##  9 Afghanistan Asia       1992    41.7 16317921      649.
## 10 Afghanistan Asia       1997    41.8 22227415      635.
## # ... with 14 more rows
```
…
